{
  "type": "service_account",
  "project_id": "hitchhiking-396cb",
  "private_key_id": "cee63033d97d43f76d15bb59c3063ecbafb266c0",
  "private_key": "-----BEGIN PRIVATE KEY-----\nMIIEvAIBADANBgkqhkiG9w0BAQEFAASCBKYwggSiAgEAAoIBAQC4gBJaaIxx7FzC\nJDlXJxBiX+zpakXNJnkdmutCkKRnqx4Vurxr49+YhweG0U9khD1RhwHzdSHbjzxP\n5ckftN9rV+BqA7GswMjuJsQv7A+QPpLWDFI7SdLFCtLtQ1Ok1a5CUN7rF9Bisq8S\nfvpde3mRXUByRcljatJa903+PTNIvnjpI3fMi89Fa436/SSmRY1/PYdqLlWomYtT\nfniCDlNfahptuVD6tpyY64B8TaZjr7frFC+MgLsQe3hUdX9RJZlVEBCK3fOW+zhO\nDLweZ1HOI2upUuvLqn3z4PYjNOAb1VqIQgwmmOmeh2YjHgkgFIwkzQn7VcR9Z+ct\n0siDbruNAgMBAAECggEARsDSiPoz9dJTRh5XIP15kog/1clr6D77TmelFbtbWOgt\n2t5oOKXEDv2lXMWzARSXYUb5cBA4wja9RdSUmwSlc0hZZr5w6hNqWq3iKZCI7WOZ\nst05wcPPQMIkXlml334UXBkgS56vytHEQr8QKz5ZQe41cz0g/G+wKLNTJQ76Nkgw\nu4/RQnA39RmcLzDBBldSTIqlxcsM/hJjT3FcGnAKMySJSXO1uoZBBOChJwHjzcjO\nJbYbb7btbqF0KlFt5RzIi9hla+UXSJ28IBTltlaJikAABtkWt2dVKqBeIRcD1GwQ\nBA+e392HKmdU4pKzttmEHNPDRz95Ml/olM/AKFOj3wKBgQD6lvHGBtZoxp+lsz00\nyf5RffDdSUIyCDBT/UP3BvnEzTpeINqCjErtMQEiKF2ChW5xoCoSYRnJNnHPQeo5\n9AmZDTJrb2tsDX6B2FAo72i/33JYEw2w4NoPiLmshjQIqdS35trNOupKZwzP2HWI\nnXzZvaaoEfZcPd28s5BS9Kg2MwKBgQC8e9bRDlhkl6UE82pPphXLjtb7etTBF0hy\n7oxn7RdFJK81ihfplGt0nv/87DfxeJpABy9jNI4++CyZvV4b7TQ6FxNMDEUk0oFi\nukcwNXHYrnfuHomqCqkGqL4rnayRg43YORJYlFAE3mWoLzDUJFGTpdno7qV/bEVA\nvfE53zoHPwKBgCYFsTmy3+WV/bNOtwLDg2sqCNoKu5iL1Ylo7F8XF97cpPaTVZRp\nZRUIUnu0VDvxswhanQec5CS7thkUj02r0aj/b58NkOccRQ2+nKsZaHN0nAzxFyq3\nc17YCBQ9aLfHzRb6WEi7n8EaUb9XwL2x57fCJv9pelAUswhm1oc/yCYxAoGAO6vJ\nGm48Nbx8ldCqO4UNKWCTVxJQAMFqQlibQtugnlc60OxjHaPLUSR1TpFKNLxFuTeN\nHQ8qaW0QUavN+3FhM3LSvSS1Ty8Fn0fx+aUx4bN6bHxmgNrXIDCT5CMK2xaW9Xk8\nAacSnjf6XwBxqPfGi8PZ9RB4fJq+YfzAPd4Z9OkCgYAHCt/wMGwnDfsWkb4j9LF6\nFte20ANmYQ6bUfKGfSpn2VrZ/S6FCY1Peg942XVr7OKwmQ6g8Mx7dOPTGY3Pzu3S\npxIKwk9moYrrbTukLguahOMXU0SBjx7X5LC93BrARnsiE8gDtkSeK63qfIYA0LGm\nMMLUzbUNaqb07cZQ12F8xw==\n-----END PRIVATE KEY-----\n",
  "client_email": "firebase-adminsdk-ssfln@hitchhiking-396cb.iam.gserviceaccount.com",
  "client_id": "112436515387988822630",
  "auth_uri": "https://accounts.google.com/o/oauth2/auth",
  "token_uri": "https://oauth2.googleapis.com/token",
  "auth_provider_x509_cert_url": "https://www.googleapis.com/oauth2/v1/certs",
  "client_x509_cert_url": "https://www.googleapis.com/robot/v1/metadata/x509/firebase-adminsdk-ssfln%40hitchhiking-396cb.iam.gserviceaccount.com"
}
